[2021-01-29 10:53:37] local.INFO: Login Activity | User: [9991 | cb020] | ipAddress: 122.179.129.167  
[2021-01-29 10:54:49] local.INFO: Login Activity | User: [9964 | cb017] | ipAddress: 122.179.129.167  
[2021-01-29 11:02:22] local.INFO: Login Activity | User: [9993 | kshitij] | ipAddress: 122.179.129.167  
[2021-01-29 11:02:52] local.INFO: Login Activity | User: [20596 | CB10] | ipAddress: 122.179.129.167  
[2021-01-29 11:03:04] local.INFO: Login Activity | User: [9956 | cb010] | ipAddress: 122.179.129.167  
[2021-01-29 11:03:26] local.INFO: Login Activity | User: [9964 | cb017] | ipAddress: 122.179.129.167  
[2021-01-29 11:04:59] local.INFO: Login Activity | User: [22066 | q01] | ipAddress: 122.179.129.167  
[2021-01-29 11:12:37] local.INFO: Login Activity | User: [9952 | cb06] | ipAddress: 122.179.129.167  
[2021-01-29 11:14:26] local.INFO: Login Activity | User: [22066 | q01] | ipAddress: 122.179.129.167  
[2021-01-29 11:30:24] local.INFO: Login Activity | User: [9950 | cb04] | ipAddress: 122.179.129.167  
[2021-01-29 11:37:21] local.INFO: Login Activity | User: [9992 | super] | ipAddress: 122.179.129.167  
[2021-01-29 12:15:31] local.INFO: Login Activity | User: [9952 | cb06] | ipAddress: 122.179.129.167  
[2021-01-29 12:20:29] local.INFO: Login Activity | User: [9952 | cb06] | ipAddress: 122.179.129.167  
[2021-01-29 12:36:52] local.INFO: Login Activity | User: [9951 | cb05] | ipAddress: 122.179.129.167  
[2021-01-29 12:42:28] local.INFO: Login Activity | User: [9956 | cb010] | ipAddress: 122.179.129.167  
[2021-01-29 12:43:29] local.INFO: Login Activity | User: [22058 | c01] | ipAddress: 122.179.129.167  
[2021-01-29 12:47:37] local.INFO: Login Activity | User: [9952 | cb06] | ipAddress: 122.179.129.167  
[2021-01-29 13:04:51] local.INFO: Login Activity | User: [9956 | cb010] | ipAddress: 122.179.129.167  
[2021-01-29 13:11:31] local.INFO: Login Activity | User: [9991 | cb020] | ipAddress: 122.179.129.167  
[2021-01-29 13:11:57] local.INFO: Login Activity | User: [9991 | cb020] | ipAddress: 122.179.129.167  
[2021-01-29 13:12:07] local.INFO: Login Activity | User: [9991 | cb020] | ipAddress: 122.179.129.167  
[2021-01-29 13:14:51] local.INFO: Login Activity | User: [9993 | kshitij] | ipAddress: 122.179.129.167  
[2021-01-29 13:14:58] local.INFO: Login Activity | User: [9961 | cb014] | ipAddress: 122.179.129.167  
[2021-01-29 13:16:10] local.INFO: Login Activity | User: [9963 | cb016] | ipAddress: 122.179.129.167  
[2021-01-29 13:38:38] local.INFO: Login Activity | User: [9950 | cb04] | ipAddress: 122.179.129.167  
[2021-01-29 15:17:33] local.INFO: Login Activity | User: [9991 | cb020] | ipAddress: 122.179.129.167  
[2021-01-29 15:25:19] local.INFO: Login Activity | User: [9993 | kshitij] | ipAddress: 122.179.129.167  
[2021-01-29 15:25:40] local.INFO: Login Activity | User: [9964 | cb017] | ipAddress: 122.179.129.167  
[2021-01-29 15:43:15] local.INFO: Login Activity | User: [9993 | kshitij] | ipAddress: 122.179.129.167  
[2021-01-29 15:49:24] local.INFO: Login Activity | User: [9964 | cb017] | ipAddress: 122.179.129.167  
[2021-01-29 15:52:29] local.INFO: Login Activity | User: [9962 | cb015] | ipAddress: 122.179.129.167  
[2021-01-29 15:54:31] local.INFO: Login Activity | User: [9963 | cb016] | ipAddress: 122.179.129.167  
[2021-01-29 16:00:01] local.INFO: Login Activity | User: [9956 | cb010] | ipAddress: 122.179.129.167  
[2021-01-29 16:26:05] local.INFO: Login Activity | User: [9950 | cb04] | ipAddress: 122.179.129.167  
[2021-01-29 16:32:08] local.INFO: Login Activity | User: [9993 | kshitij] | ipAddress: 122.179.129.167  
[2021-01-29 16:35:09] local.INFO: Login Activity | User: [9961 | cb014] | ipAddress: 122.179.129.167  
[2021-01-29 16:36:15] local.INFO: Login Activity | User: [9956 | cb010] | ipAddress: 122.179.129.167  
[2021-01-29 17:20:12] local.INFO: Login Activity | User: [9961 | cb014] | ipAddress: 122.179.129.167  
[2021-01-29 17:38:42] local.INFO: Login Activity | User: [9956 | cb010] | ipAddress: 122.179.129.167  
[2021-01-29 17:52:23] local.INFO: Login Activity | User: [9961 | cb014] | ipAddress: 122.179.129.167  
[2021-01-29 18:50:53] local.INFO: Login Activity | User: [9948 | cb02] | ipAddress: 122.179.129.167  
[2021-01-29 18:58:49] local.INFO: Login Activity | User: [22066 | q01] | ipAddress: 122.179.129.167  
[2021-01-29 19:00:29] local.INFO: Login Activity | User: [9956 | cb010] | ipAddress: 122.179.129.167  
[2021-01-29 19:10:59] local.INFO: Login Activity | User: [9964 | cb017] | ipAddress: 122.179.129.167  
[2021-01-29 19:16:50] local.INFO: Login Activity | User: [9986 | BT1] | ipAddress: 2402:3a80:156d:36fb:fe9e:8cc2:1088:1fe4  
[2021-01-29 19:44:57] local.INFO: Login Activity | User: [22066 | q01] | ipAddress: 122.179.129.167  
[2021-01-29 20:18:16] local.INFO: Login Activity | User: [9952 | cb06] | ipAddress: 122.179.129.167  
[2021-01-29 21:00:09] local.INFO: Login Activity | User: [9986 | BT1] | ipAddress: 2405:201:9006:3808:e863:ba04:12c4:e5e2  
